Working with the tsg package • tsg
…
If you pass multiple variables, it will generate frequency tables for
each variable separately in a list.

person_record |>
  generate_frequency(sex, age, marital_status)
#> $Sex
#> # A tibble: 3 × 3
#>   category   frequency percent
#>   <int+lbl>      <int>   <dbl>
#> 1 1 [Male]        1516    52.0
#> 2 2 [Female]      1402    48.0
#> 3 0 [Total]       2918   100  
#> 
#> $Age
#> # A tibble: 96 × 3
#>    category frequency percent
#>    <chr>        <int>   <dbl>
#>  1 16              82    2.81
#>  2 15              75    2.57
#>  3 12              74    2.54
#>  4 13              70    2.40
#>  5 20              68    2.33
#>  6 14              66    2.26
#>  7 19              66    2.26
#>  8 11              61    2.09
#>  9 24              61    2.09
#> 10 18              59    2.02
#> # ℹ 86 more rows
…
Sorting

By default, the output is sorted by frequency in descending order. If
sort_value is set to FALSE, the output will be
sorted by the variable values in ascending order.

person_record |>
  generate_frequency(age, sort_value = TRUE)
#> # A tibble: 96 × 3
#>    category frequency percent
#>    <chr>        <int>   <dbl>
#>  1 16              82    2.81
#>  2 15              75    2.57
#>  3 12              74    2.54
#>  4 13              70    2.40
#>  5 20              68    2.33
#>  6 14              66    2.26
#>  7 19              66    2.26
#>  8 11              61    2.09
#>  9 24              61    2.09
#> 10 18              59    2.02
#> # ℹ 86 more rows

person_record |>
  generate_frequency(age, sort_value = FALSE)
#> # A tibble: 96 × 3
#>    category frequency percent
#>    <chr>        <int>   <dbl>
#>  1 0               32    1.10
#>  2 1               42    1.44
#>  3 2               44    1.51
#>  4 3               41    1.41
#>  5 4               44    1.51
#>  6 5               54    1.85
#>  7 6               44    1.51
#>  8 7               47    1.61
#>  9 8               56    1.92
#> 10 9               48    1.64
#> # ℹ 86 more rows
…
    age, 
    marital_status, 
    # vector of variable names (character) to exclude from sorting
    sort_except = "age" 
  )
#> $Sex
#> # A tibble: 3 × 3
#>   category   frequency percent
#>   <int+lbl>      <int>   <dbl>
#> 1 1 [Male]        1516    52.0
#> 2 2 [Female]      1402    48.0
#> 3 0 [Total]       2918   100  
#> 
#> $Age
#> # A tibble: 96 × 3
#>    category frequency percent
#>    <chr>        <int>   <dbl>
#>  1 0               32    1.10
#>  2 1               42    1.44
#>  3 2               44    1.51
#>  4 3               41    1.41
#>  5 4               44    1.51
#>  6 5               54    1.85
#>  7 6               44    1.51
#>  8 7               47    1.61
#>  9 8               56    1.92
#> 10 9               48    1.64
#> # ℹ 86 more rows
…
